{
  "project_info": {
    "project_number": "122033685785",
    "firebase_url": "https://quiz-bb0c3.firebaseio.com",
    "project_id": "quiz-bb0c3",
    "storage_bucket": "quiz-bb0c3.appspot.com"
  },
  "client": [
    {
      "client_info": {
        "mobilesdk_app_id": "1:122033685785:android:e009ce912bbe7352",
        "android_client_info": {
          "package_name": "com.desafio.QuiZ"
        }
      },
      "oauth_client": [
        {
          "client_id": "122033685785-utafglfpjq3v4gucjk84sp473foe87it.apps.googleusercontent.com",
          "client_type": 3
        }
      ],
      "api_key": [
        {
          "current_key": "AIzaSyBkpqV9_rPW13PYrhhu8VtsoyXHO8s5j0o"
        }
      ],
      "services": {
        "analytics_service": {
          "status": 1
        },
        "appinvite_service": {
          "status": 1,
          "other_platform_oauth_client": []
        },
        "ads_service": {
          "status": 2
        }
      }
    }
  ],
  "configuration_version": "1"
}